{
  "items": [
    {
      "person": {
        "typeDocument": "DNI",
        "identityDocument": "12345678",
        "surnames": "PEREZ GONZALES",
        "names": "JUAN LUIS",
        "email": "abc@google.com",
        "id": 1
      },
      "week": {
        "startDate": "2021-12-27T00:00:00",
        "endDate": "2022-01-03T00:00:00",
        "state": 0,
        "id": 1
      },
      "applicationDate": "2021-12-27T22:40:16.9042952",
      "state": 0,
      "firstLevelOrgan": {
        "value": null,
        "abbreviation": null,
        "parentId": 0,
        "id": 215
      },
      "secondLevelOrgan": {
        "value": null,
        "abbreviation": null,
        "parentId": 0,
        "id": 263
      },
      "thirdLevelOrgan": {
        "value": "UNIDAD DE SISTEMAS DE INFORMACIÓN (USI)",
        "abbreviation": "USI",
        "parentId": 263,
        "id": 265
      },
      "authorizationDetail": [
        {
          "floor": 1,
          "presentialDays": 7,
          "monday": true,
          "tuesday": true,
          "wednesday": true,
          "thursday": true,
          "friday": true,
          "saturday": true,
          "sunday": true,
          "headquarter": {
            "value": "GUARDIA CIVIL",
            "abbreviation": "OTIC",
            "parentId": 0,
            "id": 325
          },
          "id": 1
        }
      ],
      "creationTime": "2021-12-27T22:40:16.8095741",
      "id": 1,
      "firstLevelOrgans": [
        {
          "value": "DESPACHO MINISTERIAL",
          "abbreviation": "MINEDU",
          "parentId": 0,
          "id": 213
        },
        {
          "value": "SECRETARIA GENERAL",
          "abbreviation": "SG",
          "parentId": 0,
          "id": 214
        },
        {
          "value": "SECRETARÍA DE PLANIFICACIÓN ESTRATÉGICA",
          "abbreviation": "SPE",
          "parentId": 0,
          "id": 215
        },
        {
          "value": "DESPACHO VICEMINISTERIAL DE GESTIÓN PEDAGÓGICA",
          "abbreviation": "VGP",
          "parentId": 0,
          "id": 216
        },
        {
          "value": "DESPACHO VICEMINISTERIAL DE GESTIÓN INSTITUCIONAL",
          "abbreviation": "VGM",
          "parentId": 0,
          "id": 217
        },
        {
          "value": "SENAJU - SECRETARÍA NACIONAL DE LA JUVENTUD",
          "abbreviation": "SENAJU",
          "parentId": 0,
          "id": 218
        },
        {
          "value": "FONDEP - FONDO NACIONAL DE DESARROLLO DE LA EDUCACIÓN PERUANA",
          "abbreviation": "FONDEP",
          "parentId": 0,
          "id": 219
        },
        {
          "value": "PRONABEC - PROGRAMA NACIONAL DE BECAS Y CRÉDITO EDUCATIVO",
          "abbreviation": "PRONABEC",
          "parentId": 0,
          "id": 220
        },
        {
          "value": "DIGERE - DIRECCIÓN DE GESTIÓN DE RECURSOS EDUCATIVO",
          "abbreviation": "DIGERE",
          "parentId": 0,
          "id": 221
        },
        {
          "value": "PRONIED - PROGRAMA NACIONAL DE INFRAESTRUCTURA EDUCATIVA",
          "abbreviation": "PRONIED",
          "parentId": 0,
          "id": 222
        }
      ],
      "secondLevelOrgans": [
        {
          "value": "ÓRGANO DE CONTROL INSTITUCIONAL (OCI)",
          "abbreviation": "OCI",
          "parentId": 213,
          "id": 223
        },
        {
          "value": "PROCURADURÍA PÚBLICA (PP)",
          "abbreviation": "PP",
          "parentId": 213,
          "id": 227
        },
        {
          "value": "CONSEJO NACIONAL DE EDUCACIÓN (CNE)",
          "abbreviation": "CNE",
          "parentId": 213,
          "id": 228
        },
        {
          "value": "PERTENEZCO AL EQUIPO DEL DESPACHO MINISTERIAL",
          "abbreviation": "DM",
          "parentId": 213,
          "id": 229
        },
        {
          "value": "OFICINA GENERAL DE RECURSOS HUMANOS (OGRH)",
          "abbreviation": "OGRH",
          "parentId": 214,
          "id": 230
        },
        {
          "value": "OFICINA GENERAL DE COOPERACIÓN Y ASUNTOS INTERNACIONALES (OGECI)",
          "abbreviation": "OGECI",
          "parentId": 214,
          "id": 235
        },
        {
          "value": "OFICINA GENERAL DE ADMINISTRACIÓN (OGA)",
          "abbreviation": "OGA",
          "parentId": 214,
          "id": 236
        },
        {
          "value": "OFICINA GENERAL DE TRANSPARENCIA, ÉTICA PÚBLICA Y ANTICORRUPCIÓN (OTEPA)",
          "abbreviation": "OTEPA",
          "parentId": 214,
          "id": 242
        },
        {
          "value": "OFICINA GENERAL DE COMUNICACIONES (OGC)",
          "abbreviation": "OGC",
          "parentId": 214,
          "id": 243
        },
        {
          "value": "OFICINA GENERAL DE ASESORÍA JURÍDICA (OAJ)",
          "abbreviation": "OAJ",
          "parentId": 214,
          "id": 248
        },
        {
          "value": "OFICINA DE ATENCIÓN AL CIUDADANO Y GESTIÓN DOCUMENTAL (OACIGED)",
          "abbreviation": "OACIGED",
          "parentId": 214,
          "id": 249
        },
        {
          "value": "OFICINA DE DEFENSA NACIONAL Y DE GESTIÓN DEL RIESGO DE DESASTRES (ODENAGED)",
          "abbreviation": "ODENAGED",
          "parentId": 214,
          "id": 250
        },
        {
          "value": "PERTENEZCO AL EQUIPO DE LA SECRETARÍA GENERAL",
          "abbreviation": "SG",
          "parentId": 214,
          "id": 251
        },
        {
          "value": "OFICINA DE PLANIFICACIÓN ESTRATÉGICA Y PRESUPUESTO (OPEP)",
          "abbreviation": "OPEP",
          "parentId": 215,
          "id": 252
        },
        {
          "value": "OFICINA DE SEGUIMIENTO Y EVALUACIÓN ESTRATÉGICA (OSEE)",
          "abbreviation": "OSEE",
          "parentId": 215,
          "id": 259
        },
        {
          "value": "OFICINA DE TECNOLOGÍAS DE LA INFORMACIÓN Y COMUNICACIÓN (OTIC)",
          "abbreviation": "OTIC",
          "parentId": 215,
          "id": 263
        },
        {
          "value": "OFICINA DE MEDICIÓN DE LA CALIDAD DE LOS APRENDIZAJES (UMC)",
          "abbreviation": "UMC",
          "parentId": 215,
          "id": 269
        },
        {
          "value": "PERTENEZCO AL EQUIPO DE LA SECRETARÍA GENERAL DE PLANIFICACIÓN ESTRATÉGICA (SGPE)",
          "abbreviation": "SGPE",
          "parentId": 215,
          "id": 270
        },
        {
          "value": "CASA DE LA LITERATURA PERUANA (CASLIT)",
          "abbreviation": "CASLIT",
          "parentId": 216,
          "id": 271
        },
        {
          "value": "DIRECCIÓN GENERAL DE DESARROLLO DOCENTE (DIGEDD)",
          "abbreviation": "DIGEDD",
          "parentId": 216,
          "id": 272
        },
        {
          "value": "DIRECCIÓN GENERAL DE EDUCACIÓN BÁSICA REGULAR (DIGEBR)",
          "abbreviation": "DIGEBR",
          "parentId": 216,
          "id": 279
        },
        {
          "value": "DIRECCIÓN GENERAL DE EDUCACIÓN BÁSICA ALTERNATIVA, INTERCULTURAL BILINGÜE Y DE SERVICIOS EDUCATIVOS EN EL ÁMBITO RURAL (DIGEIBIRA)",
          "abbreviation": "DIGEIBIRA",
          "parentId": 216,
          "id": 285
        },
        {
          "value": "DIRECCIÓN GENERAL DE SERVICIOS EDUCATIVOS ESPECIALIZADOS (DIGESE)",
          "abbreviation": "DIGESE",
          "parentId": 216,
          "id": 290
        },
        {
          "value": "DIRECCIÓN DE INNOVACIÓN TECNOLÓGICA EN EDUCACIÓN (DITE)",
          "abbreviation": "DITE",
          "parentId": 216,
          "id": 294
        },
        {
          "value": "DIRECCIÓN GENERAL DE EDUCACIÓN SUPERIOR UNIVERSITARIA (DIGESU)",
          "abbreviation": "DIGESU",
          "parentId": 216,
          "id": 295
        },
        {
          "value": "DIRECCIÓN GENERAL DE EDUCACIÓN TÉCNICO - PRODUCTIVA Y SUPERIOR TECNOLÓGICA Y ARTÍSTICA(DIGESUTPA)",
          "abbreviation": "DIGESUTPA",
          "parentId": 216,
          "id": 299
        },
        {
          "value": "PERTENEZCO AL EQUIPO DEL VICEMINISTERIO DE GESTIÓN PEDAGÓGICA",
          "abbreviation": "VGP",
          "parentId": 216,
          "id": 303
        },
        {
          "value": "DIRECCIÓN GENERAL DE GESTIÓN DESCENTRALIZADA (DIGEGED)",
          "abbreviation": "DIGEGED",
          "parentId": 217,
          "id": 304
        },
        {
          "value": "DIRECCIÓN GENERAL DE LA CALIDAD DE LA GESTIÓN ESCOLAR (DIGC)",
          "abbreviation": "DIGC",
          "parentId": 217,
          "id": 309
        },
        {
          "value": "DIRECCIÓN GENERAL DE BECAS Y CRÉDITO EDUCATIVO (DIGEBEC)",
          "abbreviation": "DIGEBEC",
          "parentId": 217,
          "id": 313
        },
        {
          "value": "DIRECCIÓN GENERAL DE INFRAESTRUCTURA EDUCATIVA (DIGEIE)",
          "abbreviation": "DIGEIE",
          "parentId": 217,
          "id": 314
        },
        {
          "value": "PERTENEZCO AL EQUIPO DEL VICEMINISTERIO DE GESTIÓN INSTITUCIONAL",
          "abbreviation": "VGM",
          "parentId": 217,
          "id": 319
        },
        {
          "value": "DIRECCIÓN DE PROMOCIÓN, ORGANIZACIÓN Y GESTIÓN (DIPROGE)",
          "abbreviation": "DIPROGE",
          "parentId": 218,
          "id": 320
        },
        {
          "value": "DIRECCIÓN DE INVESTIGACIÓN Y DESARROLLO (DINDES)",
          "abbreviation": "DINDES",
          "parentId": 218,
          "id": 321
        },
        {
          "value": "DIRECCIÓN DE ASISTENCIA INTEGRAL Y MONITOREO (DAIM)",
          "abbreviation": "DAIM",
          "parentId": 218,
          "id": 322
        },
        {
          "value": "PERTENEZCO AL EQUIPO DE LA DIRECCIÓN/OFICINA GENERAL DE LA SENAJU",
          "abbreviation": "SENAJU",
          "parentId": 218,
          "id": 323
        }
      ],
      "thirdLevelOrgans": [
        {
          "value": "DIRECCIÓN DE PLANIFICACIÓN DE INVERSIONES (DIPLAN)",
          "abbreviation": "DIPLAN",
          "parentId": 314,
          "id": 315
        },
        {
          "value": "DIRECCIÓN DE NORMATIVIDAD DE INFRAESTRUCTURA (DINOR)",
          "abbreviation": "DINOR",
          "parentId": 314,
          "id": 316
        },
        {
          "value": "DIRECCIÓN DE SANEAMIENTO FÍSICO LEGAL Y REGISTRO INMOBILIARIO (DISAFIL)",
          "abbreviation": "DISAFIL",
          "parentId": 314,
          "id": 317
        },
        {
          "value": "PERTENEZCO AL EQUIPO DE LA DIRECCIÓN/OFICINA GENERAL DE LA DIGEIE",
          "abbreviation": "DIGEIE",
          "parentId": 314,
          "id": 318
        },
        {
          "value": "DIRECCIÓN DE GESTIÓN ESCOLAR (DIGE)",
          "abbreviation": "DIGE",
          "parentId": 309,
          "id": 310
        },
        {
          "value": "DIRECCIÓN DE FORTALECIMIENTO DE LA GESTIÓN ESCOLAR (DIF)",
          "abbreviation": "DIF",
          "parentId": 309,
          "id": 311
        },
        {
          "value": "PERTENEZCO AL EQUIPO DE LA DIRECCIÓN/OFICINA GENERAL DE LA DIGC",
          "abbreviation": "DIGC",
          "parentId": 309,
          "id": 312
        },
        {
          "value": "DIRECCIÓN DE RELACIONES INTERGUBERNAMENTALES (DIRI)",
          "abbreviation": "DIRI",
          "parentId": 304,
          "id": 305
        },
        {
          "value": "DIRECCIÓN DE APOYO A LA GESTIÓN EDUCATIVA DESCENTRALIZADA (DAGED)",
          "abbreviation": "DAGED",
          "parentId": 304,
          "id": 306
        },
        {
          "value": "DIRECCIÓN DE FORTALECIMIENTO DE CAPACIDADES (DIFOCA)",
          "abbreviation": "DIFOCA",
          "parentId": 304,
          "id": 307
        },
        {
          "value": "PERTENEZCO AL EQUIPO DE LA DIRECCIÓN/OFICINA GENERAL DE LA DIGEGED",
          "abbreviation": "DIGEGED",
          "parentId": 304,
          "id": 308
        },
        {
          "value": "DIRECCIÓN DE SERVICIOS DE EDUCACIÓN TÉCNICO PRODUCTIVA Y SUPERIOR TECNOLÓGICA Y ARTÍSTICA (DISERTPA)",
          "abbreviation": "DISERTPA",
          "parentId": 299,
          "id": 300
        },
        {
          "value": "DIRECCIÓN DE GESTIÓN DE INSTITUCIONES DE EDUCACIÓN TÉCNICO PRODUCTIVA Y SUPERIOR TECNOLÓGICA Y ARTÍSTICA (DIGEST)",
          "abbreviation": "DIGEST",
          "parentId": 299,
          "id": 301
        },
        {
          "value": "PERTENEZCO AL EQUIPO DE LA DIRECCIÓN/OFICINA GENERAL DE LA DIGESUTPA",
          "abbreviation": "DIGESUTPA",
          "parentId": 299,
          "id": 302
        },
        {
          "value": "DIRECCIÓN DE POLÍTICAS PARA EL DESARROLLO Y ASEGURAMIENTO DE LA CALIDAD DE LA EDUCACIÓN SUPERIOR UNIVERSITARIA (DIPODA)",
          "abbreviation": "DIPODA",
          "parentId": 295,
          "id": 296
        },
        {
          "value": "DIRECCIÓN DE COORDINACIÓN Y PROMOCIÓN DE LA CALIDAD DE LA EDUCACIÓN SUPERIOR UNIVERSITARIA (DICOPRO)",
          "abbreviation": "DICOPRO",
          "parentId": 295,
          "id": 297
        },
        {
          "value": "PERTENEZCO AL EQUIPO DE LA DIRECCIÓN/OFICINA GENERAL DE LA DIGESU",
          "abbreviation": "DIGESU",
          "parentId": 295,
          "id": 298
        },
        {
          "value": "DIRECCIÓN DE EDUCACIÓN BÁSICA ESPECIAL (DEBE)",
          "abbreviation": "DEBE",
          "parentId": 290,
          "id": 291
        },
        {
          "value": "DIRECCIÓN DE EDUCACIÓN BÁSICA PARA ESTUDIANTES CON DESEMPEÑO SOBRESALIENTE Y ALTO RENDIMIENTO (DEBEDSAR)",
          "abbreviation": "DEBEDSAR",
          "parentId": 290,
          "id": 292
        },
        {
          "value": "PERTENEZCO AL EQUIPO DE LA DIRECCIÓN/OFICINA GENERAL DE LA DIGESE",
          "abbreviation": "DIGESE",
          "parentId": 290,
          "id": 293
        },
        {
          "value": "DIRECCIÓN DE EDUCACIÓN BÁSICA ALTERNATIVA (DEBA)",
          "abbreviation": "DEBA",
          "parentId": 285,
          "id": 286
        },
        {
          "value": "DIRECCIÓN DE EDUCACIÓN INTERCULTURAL BILINGÜE (DEIB)",
          "abbreviation": "DEIB",
          "parentId": 285,
          "id": 287
        },
        {
          "value": "DIRECCIÓN DE SERVICIOS EDUCATIVOS EN EL ÁMBITO RURAL (DISER)",
          "abbreviation": "DISER",
          "parentId": 285,
          "id": 288
        },
        {
          "value": "PERTENEZCO AL EQUIPO DE LA DIRECCIÓN/OFICINA GENERAL DE LA DIGEIBIRA",
          "abbreviation": "DIGEIBIRA",
          "parentId": 285,
          "id": 289
        },
        {
          "value": "DIRECCIÓN DE EDUCACIÓN INICIAL (DEI)",
          "abbreviation": "DEI",
          "parentId": 279,
          "id": 280
        },
        {
          "value": "DIRECCIÓN DE EDUCACIÓN PRIMARIA (DEP)",
          "abbreviation": "DEP",
          "parentId": 279,
          "id": 281
        },
        {
          "value": "DIRECCIÓN DE EDUCACIÓN SECUNDARIA (DES)",
          "abbreviation": "DES",
          "parentId": 279,
          "id": 282
        },
        {
          "value": "DIRECCIÓN DE EDUCACIÓN FÍSICA Y DEPORTE (DEFID)",
          "abbreviation": "DEFID",
          "parentId": 279,
          "id": 283
        },
        {
          "value": "PERTENEZCO AL EQUIPO DE LA DIRECCIÓN/OFICINA GENERAL DE LA DIGEBR",
          "abbreviation": "DIGEBR",
          "parentId": 279,
          "id": 284
        },
        {
          "value": "DIRECCIÓN TÉCNICO NORMATIVA DE DOCENTES (DITEN)",
          "abbreviation": "DITEN",
          "parentId": 272,
          "id": 273
        },
        {
          "value": "DIRECCIÓN DE EVALUACIÓN DOCENTE (DIED)",
          "abbreviation": "DIED",
          "parentId": 272,
          "id": 274
        },
        {
          "value": "DIRECCIÓN DE PROMOCIÓN DEL BIENESTAR Y RECONOCIMIENTO DOCENTE (DIBRED)",
          "abbreviation": "DIBRED",
          "parentId": 272,
          "id": 275
        },
        {
          "value": "DIRECCIÓN DE FORMACIÓN INICIAL DOCENTE (DIFOID)",
          "abbreviation": "DIFOID",
          "parentId": 272,
          "id": 276
        },
        {
          "value": "DIRECCIÓN DE FORMACIÓN DOCENTE EN SERVICIO (DIFODS)",
          "abbreviation": "DIFODS",
          "parentId": 272,
          "id": 277
        },
        {
          "value": "PERTENEZCO AL EQUIPO DE LA DIRECCIÓN/OFICINA GENERAL DE LA DIGEDD",
          "abbreviation": "DIGEDD",
          "parentId": 272,
          "id": 278
        },
        {
          "value": "UNIDAD DE CALIDAD Y SEGURIDAD DE LA INFORMACIÓN (UCSI)",
          "abbreviation": "UCSI",
          "parentId": 263,
          "id": 264
        },
        {
          "value": "UNIDAD DE SISTEMAS DE INFORMACIÓN (USI)",
          "abbreviation": "USI",
          "parentId": 263,
          "id": 265
        },
        {
          "value": "UNIDAD DE INFRAESTRUCTURA TECNOLÓGICA (UIT)",
          "abbreviation": "UIT",
          "parentId": 263,
          "id": 266
        },
        {
          "value": "UNIDAD DE SERVICIO DE ATENCIÓN AL USUARIO (USAU)",
          "abbreviation": "USAU",
          "parentId": 263,
          "id": 267
        },
        {
          "value": "PERTENEZCO AL EQUIPO DE LA DIRECCIÓN/OFICINA GENERAL DE LA OTIC",
          "abbreviation": "OTIC",
          "parentId": 263,
          "id": 268
        },
        {
          "value": "UNIDAD DE ESTADÍSTICA (UE)",
          "abbreviation": "UE",
          "parentId": 259,
          "id": 260
        },
        {
          "value": "UNIDAD DE SEGUIMIENTO Y EVALUACIÓN (USE)",
          "abbreviation": "USE",
          "parentId": 259,
          "id": 261
        },
        {
          "value": "PERTENEZCO AL EQUIPO DE LA DIRECCIÓN/OFICINA GENERAL DE LA OSEE",
          "abbreviation": "OSEE",
          "parentId": 259,
          "id": 262
        },
        {
          "value": "OFICINA DE COMUNICACIONES (OCOM)",
          "abbreviation": "OCOM",
          "parentId": 252,
          "id": 253
        },
        {
          "value": "UNIDAD DE FINANCIAMIENTO POR DESEMPEÑO (UFD)",
          "abbreviation": "UFD",
          "parentId": 252,
          "id": 254
        },
        {
          "value": "UNIDAD DE PLANIFICACIÓN Y PRESUPUESTO (UPP)",
          "abbreviation": "UPP",
          "parentId": 252,
          "id": 255
        },
        {
          "value": "UNIDAD DE PROGRAMACIÓN E INVERSIONES (UPI)",
          "abbreviation": "UPI",
          "parentId": 252,
          "id": 256
        },
        {
          "value": "UNIDAD DE ORGANIZACIÓN Y MÉTODOS (UOME)",
          "abbreviation": "UOME",
          "parentId": 252,
          "id": 257
        },
        {
          "value": "PERTENEZCO AL EQUIPO DE LA DIRECCIÓN/OFICINA GENERAL DE LA OPEP",
          "abbreviation": "OPEP",
          "parentId": 252,
          "id": 258
        },
        {
          "value": "OFICINA DE COMUNICACIONES (OCOM)",
          "abbreviation": "OCOM",
          "parentId": 243,
          "id": 244
        },
        {
          "value": "OFICINA DE RELACIONES INTERINSTITUCIONALES (ORI)",
          "abbreviation": "ORI",
          "parentId": 243,
          "id": 245
        },
        {
          "value": "OFICINA DE PRENSA (OPRE)",
          "abbreviation": "OPRE",
          "parentId": 243,
          "id": 246
        },
        {
          "value": "PERTENEZCO AL EQUIPO DE LA DIRECCIÓN/OFICINA GENERAL DE LA OGC",
          "abbreviation": "OGC",
          "parentId": 243,
          "id": 247
        },
        {
          "value": "OFICINA DE LOGÍSTICA (OL)",
          "abbreviation": "OL",
          "parentId": 236,
          "id": 237
        },
        {
          "value": "OFICINA DE CONTABILIDAD Y CONTROL PREVIO (OCCP)",
          "abbreviation": "OCCP",
          "parentId": 236,
          "id": 238
        },
        {
          "value": "OFICINA DE TESORERÍA (OT)",
          "abbreviation": "OT",
          "parentId": 236,
          "id": 239
        },
        {
          "value": "OFICINA DE EJECUCIÓN COACTIVA (OEC)",
          "abbreviation": "OEC",
          "parentId": 236,
          "id": 240
        },
        {
          "value": "PERTENEZCO AL EQUIPO DE LA DIRECCIÓN/OFICINA GENERAL DE LA OGA",
          "abbreviation": "OGA",
          "parentId": 236,
          "id": 241
        },
        {
          "value": "OFICINA DE GESTIÓN DE PERSONAL (OGEPER)",
          "abbreviation": "OGEPER",
          "parentId": 230,
          "id": 231
        },
        {
          "value": "Oficina de Gestión del Desarrollo y la Capacitación (OGDC)",
          "abbreviation": "OGDC",
          "parentId": 230,
          "id": 232
        },
        {
          "value": "OFICINA DE BIENESTAR SOCIAL Y RELACIONES LABORALES (OBIR)",
          "abbreviation": "OBIR",
          "parentId": 230,
          "id": 233
        },
        {
          "value": "PERTENEZCO AL EQUIPO DE LA DIRECCIÓN/OFICINA GENERAL DE LA OGRH",
          "abbreviation": "OGRH",
          "parentId": 230,
          "id": 234
        },
        {
          "value": "UNIDAD DE CONTROL EN GESTIÓN (UCG)",
          "abbreviation": "UCG",
          "parentId": 223,
          "id": 224
        },
        {
          "value": "UNIDAD DE CONTROL FINANCIERO (UCF)",
          "abbreviation": "UCF",
          "parentId": 223,
          "id": 225
        },
        {
          "value": "PERTENEZCO AL EQUIPO DE LA DIRECCIÓN/OFICINA GENERAL LA OCI",
          "abbreviation": "OCI",
          "parentId": 223,
          "id": 226
        }
      ],
      "headquarters": [
        {
          "value": "SEDE CENTRAL",
          "abbreviation": "CENTRAL",
          "parentId": 0,
          "id": 324
        },
        {
          "value": "GUARDIA CIVIL",
          "abbreviation": "OTIC",
          "parentId": 0,
          "id": 325
        }
      ]
    }
  ]
}
