{

  "items": [
    {
      "person": {
        "typeDocument": "DNI",
        "identityDocument": "12345678",
        "surnames": "PEREZ GONZALES",
        "names": "JUAN LUIS",
        "email": "abc@google.com",
        "id": 1
      },
      "week": {
        "startDate": "2021-12-27T00:00:00",
        "endDate": "2022-01-03T00:00:00",
        "state": 0,
        "id": 1
      },
      "applicationDate": "2021-12-27T22:40:16.9042952",
      "state": 0,
      "firstLevelOrgan": {
        "value": null,
        "abbreviation": null,
        "parentId": 0,
        "id": 215
      },
      "secondLevelOrgan": {
        "value": null,
        "abbreviation": null,
        "parentId": 0,
        "id": 263
      },
      "thirdLevelOrgan": {
        "value": "UNIDAD DE SISTEMAS DE INFORMACIÓN (USI)",
        "abbreviation": "USI",
        "parentId": 263,
        "id": 265
      },
      "authorizationDetail": [
        {
          "floor": 1,
          "presentialDays": 7,
          "monday": true,
          "tuesday": true,
          "wednesday": true,
          "thursday": true,
          "friday": true,
          "saturday": true,
          "sunday": true,
          "headquarter": {
            "value": "GUARDIA CIVIL",
            "abbreviation": "OTIC",
            "parentId": 0,
            "id": 325
          },
          "id": 1
        }
      ],
      "creationTime": "2021-12-27T22:40:16.8095741",
      "id": 1
    }
  ]
}
